{
  "CoreWithLanguage.en-us": {
    "rootDialog": true,
    "triggers": {
      "": [
        "WelcomeDialog.en-us"
      ],
      "Cancel": [
        "CancelDialog.en-us"
      ],
      "Help": [
        "HelpDialog.en-us"
      ],
      "HandyEinrichten": [
        "GetWikiDialog.en-us"
      ],
      "Drucker": [
        "GetWikiDialog.en-us"
      ],
      "Zoom": [
        "GetWikiDialog.en-us"
      ],
      "HandyAllgemein": [
        "GetWikiDialog.en-us"
      ],
      "TeamsEinrichten": ""
    }
  },
  "CoreWithLanguage.de-de": {
    "rootDialog": true,
    "triggers": {
      "": [
        "WelcomeDialog.de-de"
      ],
      "Cancel": [
        "CancelDialog.de-de"
      ],
      "Help": [
        "HelpDialog.de-de"
      ],
      "HandyEinrichten": [
        "GetWikiDialog.de-de"
      ],
      "Drucker": [
        "GetWikiDialog.de-de"
      ],
      "Zoom": [
        "GetWikiDialog.de-de"
      ],
      "HandyAllgemein": [
        "GetWikiDialog.de-de"
      ],
      "TeamsEinrichten": ""
    }
  }
}
